# p_k_table
1.264919421376683886e+02
1.730182046610560747e+02
2.366571944984729043e+02
3.237022719738370142e+02
4.427596672355487613e+02
6.055965336354527153e+02
8.282950065978438943e+02
1.132819626755127729e+03
1.549126458487118271e+03
2.117965013609362813e+03
2.894500078672945619e+03
3.952764801063522100e+03
5.390662110659628524e+03
7.334728567547139392e+03
9.943173156308750549e+03
1.340361725613014460e+04
1.791682984332277920e+04
2.365553102220818255e+04
3.068635356512300132e+04
3.884378379944604967e+04
4.755030654560653056e+04
5.560090380456792627e+04
6.097825699727983738e+04
6.118190241081309796e+04
5.364935140535325627e+04
4.073968258809316467e+04
2.972809428520757865e+04
2.334292887227861502e+04
1.387853111845509557e+04
9.309381400662852684e+03
5.157160838934220919e+03
2.856775345902927711e+03
1.473540641306279213e+03
7.508079865854012951e+02
3.669350375416109387e+02
1.771551744046203964e+02
8.206117578625922704e+01
3.786403783174738180e+01
1.691944878140672515e+01
7.548354038753058326e+00
3.282284007736364195e+00
1.427132961253706478e+00
6.076661960538589646e-01
2.588879228518898845e-01
1.084180878016024752e-01
4.541169756039444699e-02
1.875640058139606270e-02
7.727729420952591383e-03
3.157705253292053798e-03
1.271467724441886554e-03
