# phy_radius_h1_final
-1.301042606982605321e-18
2.498103919755591262e-01
4.996207839511183635e-01
7.494311759266775175e-01
9.992415679022366160e-01
1.249051959877795825e+00
1.498862351853355035e+00
1.748672743828914022e+00
1.998483135804473232e+00
2.248293527780032441e+00
2.498103919755591651e+00
2.747914311731150860e+00
2.997724703706710070e+00
3.247535095682269279e+00
3.497345487657828489e+00
3.747155879633387698e+00
3.996966271608946908e+00
4.246776663584506117e+00
4.496587055560065771e+00
4.746397447535624536e+00
4.996207839511183302e+00
5.246018231486742067e+00
5.495828623462300833e+00
5.745639015437860486e+00
5.995449407413419252e+00
6.245259799388978905e+00
6.495070191364537671e+00
6.744880583340097324e+00
6.994690975315656090e+00
7.244501367291215743e+00
7.494311759266775397e+00
7.744122151242334162e+00
7.993932543217893816e+00
8.243742935193452581e+00
8.493553327169012235e+00
8.743363719144571888e+00
8.993174111120129766e+00
9.242984503095689419e+00
9.492794895071249073e+00
9.742605287046806950e+00
9.992415679022366604e+00
1.024222607099792626e+01
1.049203646297348413e+01
1.074184685494904379e+01
1.099165724692460344e+01
1.124146763890016132e+01
1.149127803087572097e+01
1.174108842285128063e+01
1.199089881482683850e+01
1.224070920680239816e+01
1.249051959877795603e+01
1.274032999075351569e+01
1.299014038272907356e+01
1.323995077470463322e+01
1.348976116668019287e+01
1.373957155865575253e+01
1.398938195063131218e+01
1.423919234260687183e+01
1.448900273458242971e+01
1.473881312655798936e+01
1.498862351853354902e+01
1.523843391050910867e+01
1.548824430248466832e+01
1.573805469446022798e+01
1.598786508643578586e+01
1.623767547841134729e+01
1.648748587038690516e+01
1.673729626236246659e+01
1.698710665433802447e+01
1.723691704631358235e+01
1.748672743828914378e+01
1.773653783026470165e+01
1.798634822224025953e+01
1.823615861421582096e+01
1.848596900619137884e+01
1.873577939816694027e+01
1.898558979014249815e+01
1.923540018211805602e+01
1.948521057409361745e+01
1.973502096606917533e+01
1.998483135804473676e+01
2.023464175002029464e+01
2.048445214199585251e+01
2.073426253397141394e+01
2.098407292594697182e+01
2.123388331792252970e+01
2.148369370989809113e+01
2.173350410187364901e+01
2.198331449384920688e+01
2.223312488582476831e+01
2.248293527780032619e+01
2.273274566977588407e+01
2.298255606175144550e+01
2.323236645372700337e+01
2.348217684570256125e+01
2.373198723767812268e+01
2.398179762965368056e+01
2.423160802162923844e+01
2.448141841360479987e+01
2.473122880558035774e+01
2.498103919755591562e+01
2.523084958953147705e+01
2.548065998150703493e+01
2.573047037348259281e+01
2.598028076545815424e+01
2.623009115743371211e+01
2.647990154940926999e+01
2.672971194138483142e+01
2.697952233336038930e+01
2.722933272533594717e+01
2.747914311731150505e+01
2.772895350928706648e+01
2.797876390126262436e+01
2.822857429323818224e+01
2.847838468521374367e+01
2.872819507718930154e+01
2.897800546916485942e+01
2.922781586114042085e+01
2.947762625311597873e+01
2.972743664509153660e+01
2.997724703706709448e+01
3.022705742904265591e+01
3.047686782101821379e+01
3.072667821299377167e+01
3.097648860496933310e+01
3.122629899694489097e+01
3.147610938892044885e+01
3.172591978089600673e+01
3.197573017287156816e+01
3.222554056484712959e+01
3.247535095682268746e+01
3.272516134879824534e+01
3.297497174077380322e+01
3.322478213274936110e+01
3.347459252472492608e+01
3.372440291670048396e+01
3.397421330867604183e+01
3.422402370065159971e+01
3.447383409262715759e+01
3.472364448460272257e+01
3.497345487657828045e+01
3.522326526855383833e+01
3.547307566052939620e+01
3.572288605250496119e+01
3.597269644448051906e+01
3.622250683645607694e+01
3.647231722843163482e+01
3.672212762040719269e+01
3.697193801238275768e+01
3.722174840435831555e+01
3.747155879633387343e+01
3.772136918830943131e+01
3.797117958028499629e+01
3.822098997226055417e+01
3.847080036423611205e+01
3.872061075621166992e+01
3.897042114818722780e+01
3.922023154016279278e+01
3.947004193213835066e+01
3.971985232411390854e+01
3.996966271608946641e+01
4.021947310806502429e+01
4.046928350004058927e+01
4.071909389201614715e+01
4.096890428399170503e+01
4.121871467596726291e+01
4.146852506794282078e+01
4.171833545991838577e+01
4.196814585189394364e+01
4.221795624386950152e+01
4.246776663584505940e+01
4.271757702782061727e+01
4.296738741979617515e+01
4.321719781177174013e+01
4.346700820374729801e+01
4.371681859572285589e+01
4.396662898769841377e+01
4.421643937967397164e+01
4.446624977164952952e+01
4.471606016362509450e+01
4.496587055560065238e+01
4.521568094757621026e+01
4.546549133955176814e+01
4.571530173152732601e+01
4.596511212350289100e+01
4.621492251547844887e+01
4.646473290745400675e+01
4.671454329942956463e+01
4.696435369140512250e+01
4.721416408338068038e+01
4.746397447535624536e+01
4.771378486733180324e+01
4.796359525930736112e+01
4.821340565128291900e+01
4.846321604325848398e+01
4.871302643523404186e+01
4.896283682720959973e+01
4.921264721918515761e+01
4.946245761116071549e+01
4.971226800313627336e+01
4.996207839511183124e+01
