# dndlnm_table
6.559906489613615577e+01
4.522523890436563221e+01
2.791859196902649387e+01
1.483956305458240443e+01
7.226840723277268452e+00
3.475620053843239354e+00
1.689271797919646545e+00
8.203568206574750610e-01
3.975902214321891948e-01
1.939611065154462910e-01
9.523649695367800150e-02
4.681004450689252305e-02
2.304263342693140676e-02
1.139676368154444314e-02
5.651936340485830268e-03
2.796912904689561902e-03
1.378011934950167149e-03
6.737977524011617330e-04
3.237137716573008786e-04
1.504440517089623191e-04
6.623449179889548844e-05
2.664296370165447107e-05
9.189354583782613289e-06
2.451318614257546414e-06
4.235433504220908860e-07
3.440499334487860693e-08
7.375667651082192437e-10
1.453236782652012508e-12
1.000341891099490521e-16
4.988292084588831007e-23
