# radius_arcmin
4.003036031014425150e-03
4.992141034120753385e-03
6.225642715046161152e-03
7.763928733282215999e-03
9.682307857115485597e-03
1.207469680112949889e-02
1.505821803962372613e-02
1.877893368781226313e-02
2.341899616032271092e-02
2.920556567666880016e-02
3.642193118163357390e-02
4.542137911950765161e-02
5.664448902584275775e-02
7.064070266463548520e-02
8.809522265576119615e-02
1.098625574495223217e-01
1.370083548856353139e-01
1.708615723522810270e-01
2.130795376023786880e-01
2.657290853629287186e-01
3.313877418843731437e-01
4.132699110495802741e-01
5.153842396455340369e-01
6.427298658167694967e-01
8.015411582957244763e-01
9.995929279334410111e-01
1.246581053553214691e+00
1.554597156154867044e+00
1.938720559755105155e+00
2.417756519067453702e+00
3.015156854906185124e+00
3.760168068203285863e+00
4.689263140035061284e+00
5.847927113268247545e+00
7.292883871269001617e+00
9.094873128487263259e+00
1.134211358405829628e+01
1.414462178155493177e+01
1.763959811021850754e+01
2.199814362627789777e+01
2.743363652497391669e+01
3.421217834423800497e+01
4.266562130734730118e+01
5.320781457485155386e+01
6.635486476190754956e+01
8.275040260067503084e+01
1.031970927096943882e+02
1.286959290714844997e+02
1.604952399789520143e+02
2.001518015507211885e+02
