# phy_radius_final
-2.168404344971008868e-19
2.170788562228716245e-01
4.341577124457431935e-01
6.512365686686147903e-01
8.683154248914866091e-01
1.085394281114357984e+00
1.302473137337229581e+00
1.519551993560101399e+00
1.736630849782973218e+00
1.953709706005844593e+00
2.170788562228715968e+00
2.387867418451587564e+00
2.604946274674459161e+00
2.822025130897331202e+00
3.039103987120202799e+00
3.256182843343073952e+00
3.473261699565945548e+00
3.690340555788817589e+00
3.907419412011689186e+00
4.124498268234560783e+00
4.341577124457432824e+00
4.558655980680303976e+00
4.775734836903176017e+00
4.992813693126047170e+00
5.209892549348919211e+00
5.426971405571790363e+00
5.644050261794662404e+00
5.861129118017533557e+00
6.078207974240405598e+00
6.295286830463277639e+00
6.512365686686148791e+00
6.729444542909020832e+00
6.946523399131892873e+00
7.163602255354764026e+00
7.380681111577635178e+00
7.597759967800506331e+00
7.814838824023378372e+00
8.031917680246248636e+00
8.248996536469121565e+00
8.466075392691992718e+00
8.683154248914863871e+00
8.900233105137735024e+00
9.117311961360607953e+00
9.334390817583479105e+00
9.551469673806352034e+00
9.768548530029223187e+00
9.985627386252094340e+00
1.020270624247496727e+01
1.041978509869783842e+01
1.063686395492070957e+01
1.085394281114358250e+01
1.107102166736645366e+01
1.128810052358932481e+01
1.150517937981219596e+01
1.172225823603506711e+01
1.193933709225793827e+01
1.215641594848080942e+01
1.237349480470368057e+01
1.259057366092655172e+01
1.280765251714942288e+01
1.302473137337229403e+01
1.324181022959516518e+01
1.345888908581803634e+01
1.367596794204090926e+01
1.389304679826378042e+01
1.411012565448665157e+01
1.432720451070952450e+01
1.454428336693239565e+01
1.476136222315526680e+01
1.497844107937813973e+01
1.519551993560101089e+01
1.541259879182388381e+01
1.562967764804675497e+01
1.584675650426962790e+01
1.606383536049249727e+01
1.628091421671537020e+01
1.649799307293824313e+01
1.671507192916111251e+01
1.693215078538398544e+01
1.714922964160685837e+01
1.736630849782972774e+01
1.758338735405260067e+01
1.780046621027547360e+01
1.801754506649834298e+01
1.823462392272121591e+01
1.845170277894408883e+01
1.866878163516695821e+01
1.888586049138983114e+01
1.910293934761270407e+01
1.932001820383557344e+01
1.953709706005844637e+01
1.975417591628131930e+01
1.997125477250418868e+01
2.018833362872706161e+01
2.040541248494993454e+01
2.062249134117280391e+01
2.083957019739567684e+01
2.105664905361854977e+01
2.127372790984141915e+01
2.149080676606429208e+01
2.170788562228716145e+01
2.192496447851003438e+01
2.214204333473290376e+01
2.235912219095577669e+01
2.257620104717864962e+01
2.279327990340151899e+01
2.301035875962439192e+01
2.322743761584726130e+01
2.344451647207013423e+01
2.366159532829300360e+01
2.387867418451587653e+01
2.409575304073874946e+01
2.431283189696161884e+01
2.452991075318449177e+01
2.474698960940736114e+01
2.496406846563023407e+01
2.518114732185310345e+01
2.539822617807597638e+01
2.561530503429884931e+01
2.583238389052171868e+01
2.604946274674459161e+01
2.626654160296746099e+01
2.648362045919033392e+01
2.670069931541320685e+01
2.691777817163607622e+01
2.713485702785894915e+01
2.735193588408182208e+01
2.756901474030469146e+01
2.778609359652756439e+01
2.800317245275043732e+01
2.822025130897330669e+01
2.843733016519617962e+01
2.865440902141905255e+01
2.887148787764192193e+01
2.908856673386479486e+01
2.930564559008766423e+01
2.952272444631053716e+01
2.973980330253341009e+01
2.995688215875627947e+01
3.017396101497915240e+01
3.039103987120202532e+01
3.060811872742489470e+01
3.082519758364776763e+01
3.104227643987064056e+01
3.125935529609350993e+01
3.147643415231638286e+01
3.169351300853925579e+01
3.191059186476212517e+01
3.212767072098499455e+01
3.234474957720787103e+01
3.256182843343074040e+01
3.277890728965361689e+01
3.299598614587648626e+01
3.321306500209935564e+01
3.343014385832222501e+01
3.364722271454510150e+01
3.386430157076797087e+01
3.408138042699084025e+01
3.429845928321371673e+01
3.451553813943658611e+01
3.473261699565945548e+01
3.494969585188233197e+01
3.516677470810520134e+01
3.538385356432807072e+01
3.560093242055094720e+01
3.581801127677381658e+01
3.603509013299668595e+01
3.625216898921956243e+01
3.646924784544243181e+01
3.668632670166530119e+01
3.690340555788817767e+01
3.712048441411104704e+01
3.733756327033391642e+01
3.755464212655678580e+01
3.777172098277966228e+01
3.798879983900253166e+01
3.820587869522540814e+01
3.842295755144827751e+01
3.864003640767114689e+01
3.885711526389401627e+01
3.907419412011689275e+01
3.929127297633976212e+01
3.950835183256263150e+01
3.972543068878550798e+01
3.994250954500837736e+01
4.015958840123124673e+01
4.037666725745412322e+01
4.059374611367699259e+01
4.081082496989986197e+01
4.102790382612273845e+01
4.124498268234560783e+01
4.146206153856847720e+01
4.167914039479135369e+01
4.189621925101422306e+01
4.211329810723709244e+01
4.233037696345996892e+01
4.254745581968283830e+01
4.276453467590570767e+01
4.298161353212858415e+01
4.319869238835145353e+01
4.341577124457432291e+01
4.363285010079719939e+01
4.384992895702006876e+01
4.406700781324293814e+01
4.428408666946581462e+01
4.450116552568868400e+01
4.471824438191156048e+01
4.493532323813442986e+01
4.515240209435729923e+01
4.536948095058016861e+01
4.558655980680304509e+01
4.580363866302591447e+01
4.602071751924879095e+01
4.623779637547166033e+01
4.645487523169452970e+01
4.667195408791739908e+01
4.688903294414027556e+01
4.710611180036314494e+01
4.732319065658602142e+01
4.754026951280889079e+01
4.775734836903176017e+01
4.797442722525462955e+01
4.819150608147750603e+01
4.840858493770037541e+01
4.862566379392325189e+01
4.884274265014612126e+01
4.905982150636899064e+01
4.927690036259186002e+01
4.949397921881473650e+01
4.971105807503760587e+01
4.992813693126048236e+01
