# mc_table
4.234031806018869393e+06
9.332155239028330892e+06
2.055710774680701271e+07
4.528397067577844113e+07
9.972621551999238133e+07
2.195397698616316020e+08
4.833360183676129580e+08
1.063350212905418634e+09
2.339474435736094475e+09
5.145520837345807076e+09
1.131211106129925156e+10
2.487214881335661316e+10
5.464183674077962494e+10
1.200490020272244263e+11
2.636760499328483582e+11
5.788062095933092041e+11
1.270814089110470947e+12
2.787709835861301270e+12
6.115355463812348633e+12
1.341275343883063086e+13
2.939539228602578125e+13
6.444104305871292188e+13
1.411461763206375312e+14
3.091253423150748750e+14
6.770316956673445000e+14
1.481183246755261500e+15
3.241654807035425500e+15
7.089170964180642000e+15
1.549793406265480800e+16
3.389244683449441600e+16
