# h1_corr
3.541544875008274373e-04
3.309085346209450994e-04
3.090627786741074827e-04
2.885130974694593230e-04
2.691599254673648954e-04
2.509077338896268869e-04
2.336645604030188484e-04
2.173416102105858283e-04
2.018529614199039528e-04
1.871154222904800502e-04
1.730486069272389087e-04
1.595753191565294003e-04
1.466223603951315234e-04
1.341219025349829597e-04
1.220135831697098411e-04
1.102474731400135405e-04
9.878801141089491044e-05
8.761886544443290182e-05
7.674841565121095057e-05
6.621514714017249842e-05
5.609166786913200980e-05
4.648546018141463466e-05
3.753406893484969399e-05
2.939266732760474466e-05
2.221332032236633097e-05
1.611801568196736257e-05
1.117110593390766939e-05
7.359553252621633303e-06
4.589037952742171167e-06
2.699306104150298212e-06
1.494557538562614927e-06
7.783623301216259617e-07
3.815728679955441526e-07
1.764520724337785364e-07
7.722922514879069936e-08
3.212892247314714262e-08
1.276688603962824899e-08
4.870627734574125342e-09
1.793221035595646655e-09
6.402890570669930330e-10
2.227396847878834813e-10
7.580320752184172290e-11
2.532926070542656761e-11
8.336170826381709169e-12
2.709462840516354565e-12
8.716710495443746014e-13
2.780949257430896002e-13
8.812154380540506098e-14
2.777009202045823078e-14
8.712349258348953365e-15
