# k
7.062972417770651931e-06
9.787808480682842353e-06
1.356386365229011273e-05
1.879668952871477985e-05
2.604829614158221614e-05
3.609751232221157443e-05
5.002363259269473092e-05
6.932233433241747538e-05
9.606631482411088423e-05
1.331279007373171726e-04
1.844875385006109619e-04
2.556612976957568979e-04
3.542933017086241122e-04
4.909767132019118721e-04
6.803914489605624371e-04
9.428808156697134112e-04
1.306636398673368315e-03
1.810725862658942769e-03
2.509288852683787437e-03
3.477351638948282791e-03
4.818885003200586679e-03
6.677970790752371655e-03
9.254276425464136660e-03
1.282449936401301206e-02
1.777208464240588245e-02
2.462840720497375124e-02
3.412984203365185265e-02
4.729685145886276809e-02
6.554358369769383574e-02
9.082975359729984766e-02
1.258711177069264109e-01
1.744311488835957324e-01
2.417252365367439926e-01
3.349808239681895672e-01
4.642136420429157639e-01
6.433034073592583946e-01
8.914845158337100228e-01
1.235411833482536581e+00
1.712023452119469935e+00
2.372507872411033780e+00
3.287801693185881113e+00
4.556208263591881469e+00
6.313955547941650259e+00
8.749827127075795019e+00
1.212543771846316787e+01
1.680333082345886808e+01
2.328591621337275086e+01
3.226942917407847489e+01
4.471870677877184619e+01
6.197081222534177414e+01
