# k_h
1.021725529426475987e-05
1.128189251176081598e-05
1.245746352651622146e-05
1.375552983517991379e-05
1.518885346740717068e-05
1.677152977208606899e-05
1.851912020356394351e-05
2.044880966423079371e-05
2.257957203255500644e-05
2.493236024747602642e-05
2.753031003521755338e-05
3.039896364498417825e-05
3.356653178343549371e-05
3.706415736814960837e-05
4.092623566975817084e-05
4.519074354902841151e-05
4.989961234969086945e-05
5.509914626600220799e-05
6.084046981413848698e-05
6.718003714922815561e-05
7.418018503813073039e-05
8.190974767785519361e-05
9.044472972163930535e-05
9.986905934056267142e-05
1.102754031307995319e-04
1.217660828842781484e-04
1.344540942227467895e-04
1.484641834395006299e-04
1.639341353438794613e-04
1.810160465538501740e-04
1.998778898268938065e-04
2.207051293225958943e-04
2.437025686958804727e-04
2.690963447093963623e-04
2.971361391246318817e-04
3.280976670794188976e-04
3.622854128479957581e-04
4.000354965683072805e-04
4.417191375978291035e-04
4.877462051808834076e-04
5.385692929849028587e-04
5.946881137788295746e-04
6.566545343957841396e-04
7.250778144225478172e-04
8.006308344192802906e-04
8.840564405545592308e-04
9.761749533936381340e-04
1.077892258763313293e-03
1.190208480693399906e-03
1.314228051342070103e-03
1.451170304790139198e-03
1.602382049895823002e-03
1.769350026734173298e-03
1.953716157004237175e-03
2.157293027266860008e-03
2.382082631811499596e-03
2.630295231938362122e-03
2.904371591284871101e-03
3.207006724551320076e-03
3.541176207363605499e-03
3.910166211426258087e-03
4.317604936659336090e-03
4.767498932778835297e-03
5.264271516352891922e-03
5.812807474285364151e-03
6.418501492589712143e-03
7.087308447808027267e-03
7.825804874300956726e-03
8.641252294182777405e-03
9.541669860482215881e-03
1.053590979427099228e-02
1.163375005125999451e-02
1.284598559141159058e-02
1.418453454971313477e-02
1.566256210207939148e-02
1.729459688067436218e-02
1.909669302403926849e-02
2.108656428754329681e-02
2.328378148376941681e-02
2.570994757115840912e-02
2.838892117142677307e-02
3.134704008698463440e-02
3.461339697241783142e-02
3.822011128067970276e-02
4.220264032483100891e-02
4.642290249466896057e-02
5.064316838979721069e-02
5.486343055963516235e-02
5.908369645476341248e-02
6.330396234989166260e-02
6.752422451972961426e-02
7.174448668956756592e-02
7.596474885940551758e-02
8.018501847982406616e-02
8.440528064966201782e-02
8.862554281949996948e-02
9.492759406566619873e-02
1.012296378612518311e-01
1.075316891074180603e-01
1.138337403535842896e-01
1.201357841491699219e-01
1.264378279447555542e-01
1.327398866415023804e-01
1.390419304370880127e-01
1.453439742326736450e-01
1.516460329294204712e-01
1.579480767250061035e-01
1.642501205205917358e-01
1.705521792173385620e-01
1.768542230129241943e-01
1.831562668085098267e-01
1.894583255052566528e-01
1.957603693008422852e-01
2.020624130964279175e-01
2.083644568920135498e-01
2.146665155887603760e-01
2.209685593843460083e-01
2.272706031799316406e-01
2.335726618766784668e-01
2.398747056722640991e-01
2.461767494678497314e-01
2.524788081645965576e-01
2.587808370590209961e-01
2.650828957557678223e-01
2.713849544525146484e-01
2.776869833469390869e-01
2.839890420436859131e-01
2.902911007404327393e-01
2.965931296348571777e-01
3.028951883316040039e-01
3.091972470283508301e-01
3.154992759227752686e-01
3.218013346195220947e-01
3.281033933162689209e-01
3.344054222106933594e-01
3.407074809074401855e-01
3.470095396041870117e-01
3.533115684986114502e-01
3.596136271953582764e-01
3.659156858921051025e-01
3.722177147865295410e-01
3.785197734832763672e-01
3.848218023777008057e-01
3.911238610744476318e-01
3.974259197711944580e-01
4.037279486656188965e-01
4.100300073623657227e-01
4.163320660591125488e-01
4.226340949535369873e-01
4.289361536502838135e-01
4.352382123470306396e-01
4.415402412414550781e-01
4.478422999382019043e-01
4.541443586349487305e-01
4.604463875293731689e-01
4.667484462261199951e-01
4.730505049228668213e-01
4.793525338172912598e-01
4.856545925140380859e-01
4.919566512107849121e-01
4.982586801052093506e-01
5.045607089996337891e-01
5.108627676963806152e-01
6.068246364593505859e-01
8.468919992446899414e-01
1.181933045387268066e+00
1.649520397186279297e+00
2.302091121673583984e+00
3.212826967239379883e+00
4.483861446380615234e+00
6.257732868194580078e+00
8.733369827270507812e+00
1.218839931488037109e+01
1.701028060913085938e+01
2.373975944519042969e+01
3.313150405883789062e+01
4.623873901367187500e+01
6.453135681152343750e+01
9.006076049804687500e+01
