# dndlnm_table
6.549755556533558831e+01
4.514724956178692139e+01
2.786364496407074043e+01
1.480600429090927150e+01
7.208236686122140746e+00
3.465577057111090209e+00
1.683867683612962018e+00
8.174940638402362625e-01
3.961023318206858823e-01
1.931981738389235148e-01
9.485265850587989989e-02
4.662340430271403463e-02
2.295640174506878919e-02
1.136018904619560087e-02
5.639148156350918401e-03
2.794883671608332926e-03
1.380288179279308977e-03
6.773276678265259879e-04
3.271431490744694114e-04
1.532365633934044740e-04
6.825242524122771145e-05
2.793490077956246244e-05
9.890910365208881546e-06
2.746970759492590356e-06
5.056700692177130239e-07
4.550311426015719368e-08
1.156155332582465055e-09
2.956070762420247733e-12
1.121885187486195922e-16
8.161305450078617647e-24
