# h_corr_final
1.236697401340495967e-06
1.212601204687911209e-06
1.143444204752182387e-06
1.037923664568092420e-06
9.084299106074326648e-07
7.685686069188427908e-07
6.307749687301091528e-07
5.045926480749035646e-07
3.958961709721408466e-07
3.070126239120377826e-07
2.374664952285121905e-07
1.849884939774437050e-07
1.464804651342872450e-07
1.187497963357695802e-07
9.895635071591222243e-08
8.480703848782912289e-08
7.457515535593030941e-08
6.702440187425876061e-08
6.130217594035657716e-08
5.687774513564239664e-08
5.334262728697657587e-08
5.043478349190245448e-08
4.798392982670720908e-08
4.587587401145622601e-08
4.403205140978399815e-08
4.239717851554164314e-08
4.093135787401274891e-08
3.960508384855726867e-08
3.839608314270492647e-08
3.728692072685217643e-08
3.626362277705249296e-08
3.531450515641403043e-08
3.442935194413704207e-08
3.359899947706805878e-08
3.281494415830757433e-08
3.206926427907221540e-08
3.135475087157459357e-08
3.066503501649260320e-08
2.999476035721960968e-08
2.933970959416016452e-08
2.869688455366595949e-08
2.806448491863652123e-08
2.744185275915323692e-08
2.682938041646148022e-08
2.622836813302782124e-08
2.564083441976709995e-08
2.506921450539750064e-08
2.451599609546468753e-08
2.398332215313377015e-08
2.347263103038868935e-08
2.298441583009673439e-08
2.251817771968013780e-08
2.207258207537665559e-08
2.164578969609362785e-08
2.123588848060165997e-08
2.084131613540230880e-08
2.046117220656085153e-08
2.009534750646617561e-08
1.974444561136659096e-08
1.940952357010124585e-08
1.909171644889106473e-08
1.879184597337900285e-08
1.851010094588893542e-08
1.824585946615827092e-08
1.799768019680492958e-08
1.776344231875313278e-08
1.754057763262438623e-08
1.732632254870465685e-08
1.711792555013604151e-08
1.691278261106393856e-08
1.670848050633659634e-08
1.650279020947736387e-08
1.629364627682619262e-08
1.607915065332310262e-08
1.585762238361065779e-08
1.562769046279674296e-08
1.538840489413778117e-08
1.513932893023787323e-08
1.488057771335726828e-08
1.461278766723227240e-08
1.433700734249930765e-08
1.405455313397338039e-08
1.376684694714903944e-08
1.347528346982476155e-08
1.318115204198710343e-08
1.288562446291207490e-08
1.258980484625070832e-08
1.229482426198029965e-08
1.200195333140443527e-08
1.171270030095596848e-08
1.142886109087731589e-08
1.115249318533354305e-08
1.088579881732375381e-08
1.063092434608120628e-08
1.038970773817927906e-08
1.016342747325284891e-08
9.952608897512915312e-09
9.756943384334259090e-09
9.575338569015076646e-09
9.406087015786010358e-09
9.247111579705976518e-09
9.096229934018151450e-09
8.951385725427069549e-09
8.810810138790160983e-09
8.673099720517294930e-09
8.537228818937637477e-09
8.402516374764437300e-09
8.268576144604900583e-09
8.135273934050321822e-09
8.002706714672373935e-09
7.871208260849305066e-09
7.741375779495243449e-09
7.614102876713346324e-09
7.490597365367239562e-09
7.372358607478116334e-09
7.261102450885109761e-09
7.158614703483790475e-09
7.066554620421082566e-09
6.986238490542661660e-09
6.918447983396541244e-09
6.863308851732916910e-09
6.820270810336022429e-09
6.788193865445933541e-09
6.765518920888306125e-09
6.750480874343168868e-09
6.741316878102710098e-09
6.736431224672671861e-09
6.734496263796488674e-09
6.734488277686756914e-09
6.735671877039766121e-09
6.737553171077715443e-09
6.739821191608751027e-09
6.742288406088544992e-09
6.744846762591900935e-09
6.747429658525811399e-09
6.749982714312526148e-09
6.752437434756155996e-09
6.754681659268168535e-09
6.756523556741365702e-09
6.757647886740516753e-09
6.757560796626604254e-09
6.755537828201034029e-09
6.750586568614176937e-09
6.741442503566583813e-09
6.726615791520910257e-09
6.704498643837339148e-09
6.673528004684263419e-09
6.632379995094990818e-09
6.580157633489590600e-09
6.516528445562782293e-09
6.441777399069088517e-09
6.356761363477853730e-09
6.262777007777444562e-09
6.161375476553791656e-09
6.054167038023675719e-09
5.942654966615943275e-09
5.828123524319567244e-09
5.711586691586107307e-09
5.593788904113134954e-09
5.475240447837800280e-09
5.356268831825526516e-09
5.237071277531242141e-09
5.117759389419824915e-09
4.998392587220997295e-09
4.879000664790944338e-09
4.759597703340474683e-09
4.640190011101133446e-09
4.520781608586936574e-09
4.401373508123636520e-09
4.281968256303320282e-09
4.162570509420564144e-09
4.043190446386177474e-09
3.923849066248679305e-09
3.804587212014853743e-09
3.685479710486802538e-09
3.566655553759252982e-09
3.448323705421086425e-09
3.330801740606245647e-09
3.214541416778544757e-09
3.100142352141222293e-09
2.988343743537004193e-09
2.879986015008383300e-09
2.775940184531142581e-09
2.677011709012823228e-09
2.583834962594709584e-09
2.496780646321878474e-09
2.415898214096860541e-09
2.340907955714541386e-09
2.271244812284997344e-09
2.206142685649567421e-09
2.144738655410761022e-09
2.086174080472591054e-09
2.029674051938518580e-09
1.974595495942914426e-09
1.920443697086378693e-09
1.866864025566281172e-09
1.813618777456627376e-09
1.760558600645930799e-09
1.707595372820749406e-09
1.654680200476716573e-09
1.601787547139118254e-09
1.548904847699058772e-09
1.496026273969521455e-09
1.443148983986870481e-09
1.390271579284995837e-09
1.337394061543476798e-09
1.284516432409203492e-09
1.231638693497302936e-09
1.178760846391737700e-09
1.125882892646227599e-09
1.073004833784807622e-09
1.020126671302660495e-09
9.672484066667066609e-10
9.143700413163206221e-10
8.614927968669724211e-10
8.086189865112255533e-10
7.557534454958568748e-10
7.029065692365718806e-10
6.500994270578064523e-10
5.973722471445429223e-10
5.447973242499422913e-10
4.924968132461547793e-10
4.406645068903391192e-10
3.895885328841683433e-10
3.396693498343145096e-10
2.914254039308821888e-10
2.454785981656858731e-10
2.025144086916023680e-10
1.632172453040828754e-10
1.281892653997903304e-10
9.786777371713112822e-11
