# rarr
1.000000000000000021e-03
1.247088708530978826e-03
1.555230246945466140e-03
1.939510080131536798e-03
2.418741121014055841e-03
3.016384740876190684e-03
3.761699350931839870e-03
4.691172785435414154e-03
5.850308610484331734e-03
7.295853809556569931e-03
9.098576904990725300e-03
1.134673252191468508e-02
1.415038200680104018e-02
1.764678162208151851e-02
2.200710210280986540e-02
2.744480853990255778e-02
3.422611083790707415e-02
4.268299636288368920e-02
5.322948281042112068e-02
6.638188697382003955e-02
8.278410169603069024e-02
1.032391184710001186e-01
1.287483389238763820e-01
1.605605997140857610e-01
2.002333109383986620e-01
2.497087011430497439e-01
3.114089016174340641e-01
3.883545249431368807e-01
4.843125429634983492e-01
6.039807037297040271e-01
7.532175157919083208e-01
9.393290590118440475e-01
1.171426663088700026e+00
1.460872964410041108e+00
1.821838178513942585e+00
2.271993821195383401e+00
2.833377840264917236e+00
3.533473511596269656e+00
4.406554918205018545e+00
5.495364882015129737e+00
6.853207493618750590e+00
8.546557682511833676e+00
1.065831558266919821e+01
1.329186501510653606e+01
1.657613477565734428e+01
2.067191050980996181e+01
2.577970618054687435e+01
3.214958048700629689e+01
4.009337880935343890e+01
4.999999999999999289e+01
